Robust Statistics
…
Take a look at the first few rows of the data sets by printing them to the console.

# Print XXX object
XXX

# Print XXX object
avocado

# A tibble: 17,573 x 16
   volume volume_index price_per_avoca… type  temperature temperature_usa
    <dbl>        <dbl>            <dbl> <chr>       <dbl>           <dbl>
 1 6.42e4         4.12             1.33 conv…        6.06            9.29
 2 5.49e4         3.99             1.35 conv…       -1.1             4.48
 3 1.18e5         4.63             0.93 conv…        7.11           12.2 
 4 7.90e4         4.29             1.08 conv…        1.5             7.32
 5 5.10e4         3.93             1.28 conv…       -2               6.23
 6 5.60e4         4.01             1.26 conv…        4.43            5.63
 7 8.35e4         4.34             0.99 conv…        4.38            9.56
 8 1.09e5         4.57             0.98 conv…        4.96           10.2 
 9 9.98e4         4.49             1.02 conv…        8.72           14.6 
10 7.43e4         4.24             1.07 conv…        9.06           14.6 
# … with 17,563 more rows, and 10 more variables: humidity <dbl>,
#   humidity_usa <dbl>, precipitation <dbl>, precipitation_usa <dbl>,
#   year <dbl>, season <chr>, date <date>, region <chr>, longitude <dbl>,
#   latitude <dbl>

avocado_cali

# A tibble: 338 x 16
   volume volume_index price_per_avoca… type  temperature temperature_usa
    <dbl>        <dbl>            <dbl> <chr>       <dbl>           <dbl>
 1 5.04e6         8.59             0.9  conv…       15.5             9.29
 2 4.70e6         8.50             0.94 conv…        2.61            4.48
 3 5.26e6         8.64             0.87 conv…       14.4            12.2 
 4 5.78e6         8.76             0.78 conv…        5.93            7.32
 5 4.58e6         8.46             0.91 conv…        9.76            6.23
 6 4.80e6         8.53             0.92 conv…        6.23            5.63
 7 5.76e6         8.75             0.83 conv…        8.33            9.56
 8 5.15e6         8.61             0.98 conv…       10.5            10.2 
 9 5.83e6         8.77             0.95 conv…       14.7            14.6 
10 4.59e6         8.47             1.12 conv…       14.9            14.6 
# … with 328 more rows, and 10 more variables: humidity <dbl>,
#   humidity_usa <dbl>, precipitation <dbl>, precipitation_usa <dbl>,
#   year <dbl>, season <chr>, date <date>, region <chr>, longitude <dbl>,
#   latitude <dbl>
…
