Mixed Models
…
Take a look at the first few rows of the datasets by printing them to the console.

# Print the object(s)
XXX
XXX

# Print the tom object
tom

# A tibble: 5,995 x 4
      ID Movie State Tomatometer
   <dbl> <chr> <chr>       <dbl>
 1     1 M1    Sober        28.3
 2     1 M2    Sober        27.5
 3     1 M3    Sober        11.5
 4     1 M4    Sober        17.2
 5     1 M5    Sober        31.0
 6     1 M6    Sober        36.1
 7     1 M7    Sober        31.1
 8     1 M8    Sober        32.7
 9     1 M9    Sober        44.1
10     1 M10   Sober        22.6
# … with 5,985 more rows

schools

# A tibble: 1,200 x 7
      id extra  open agree social class school
   <dbl> <dbl> <dbl> <dbl>  <dbl> <chr> <chr> 
 1     1  63.7  43.4  38.0   75.1 d     IV    
 2     2  69.5  46.9  31.5   98.1 a     VI    
 3     3  79.7  32.3  40.2  116.  d     VI    
 4     4  63.0  44.4  30.5   90.5 c     IV    
 5     5  64.2  36.9  37.4   98.5 d     IV    
 6     6  51.0  46.3  38.8   75.2 d     I     
 7     7  60.1  37.0  38.6   95.9 d     III   
 8     8  64.2  42.2  34.9   91.5 d     IV    
 9     9  56.7  32.8  31.7  115.  a     III   
10    10  47.2  44.3  25.0  123.  b     I     
# … with 1,190 more rows
…
